4bf58dd8d48988d1e7931735,230
0,398611
4d4b7104d754a06370d81259,22414
4bf58dd8d48988d1e5931735,2164
4bf58dd8d48988d176941735,2734
4d4b7105d754a06377d81259,28767
4f4528bc4b90abdf24c9de85,9052
4bf58dd8d48988d175941735,6170
4bf58dd8d48988d10f941735,1575
4d4b7105d754a06374d81259,102436
4bf58dd8d48988d120941735,495
4d4b7105d754a06376d81259,24886
4bf58dd8d48988d116941735,18377
4bf58dd8d48988d117941735,638
4bf58dd8d48988d1e4931735,278
4bf58dd8d48988d118941735,691
4bf58dd8d48988d149941735,1687
4bf58dd8d48988d142941735,13970
4bf58dd8d48988d1ce941735,1210
4bf58dd8d48988d14e941735,3994
4bf58dd8d48988d11f941735,2286
4bf58dd8d48988d16a941735,3123
4bf58dd8d48988d11d941735,815
4bf58dd8d48988d155941735,794
4bf58dd8d48988d10c941735,3498
4bf58dd8d48988d1d5941735,627
4bf58dd8d48988d1d2941735,2453
4bf58dd8d48988d111941735,4587
4bf58dd8d48988d137941735,1524
4bf58dd8d48988d1f2931735,3290
4bf58dd8d48988d154941735,201
4bf58dd8d48988d1be941735,864
4bf58dd8d48988d11b941735,3086
4bf58dd8d48988d1d8941735,725
4bf58dd8d48988d145941735,3212
4bf58dd8d48988d1fe941735,360
4d4b7105d754a06378d81259,71338
4bf58dd8d48988d1d6941735,425
4bf58dd8d48988d11e941735,1960
4bf58dd8d48988d110941735,6506
4bf58dd8d48988d1e9931735,399
4bf58dd8d48988d1c1941735,4170
4bf58dd8d48988d101951735,604
4bf58dd8d48988d146941735,1992
4bf58dd8d48988d16b941735,187
4bf58dd8d48988d1d0941735,3615
4bf58dd8d48988d1e0931735,5989
4bf58dd8d48988d122941735,163
4bf58dd8d48988d121941735,1673
4bf58dd8d48988d1bd941735,460
4bf58dd8d48988d1c2941735,52
4bf58dd8d48988d1c5941735,3871
4bf58dd8d48988d124941735,29088
4d4b7105d754a06375d81259,74280
4bf58dd8d48988d147941735,1588
4bf58dd8d48988d10d951735,385
4bf58dd8d48988d16d941735,7592
4bf58dd8d48988d1c9941735,1733
4bf58dd8d48988d118951735,2895
4bf58dd8d48988d1f9941735,8994
52e81612bcbc57f1066b7a06,113
4bf58dd8d48988d151941735,469
52f2ab2ebcbc57f1066b8b45,104
5293a7563cf9994f4e043a44,181
4bf58dd8d48988d1c4941735,3808
52e81612bcbc57f1066b7a00,36
4bf58dd8d48988d14a941735,989
4bf58dd8d48988d157941735,637
4bf58dd8d48988d143941735,1193
4bf58dd8d48988d14d941735,73
4bf58dd8d48988d150941735,2025
4bf58dd8d48988d14f941735,311
4bf58dd8d48988d103951735,9449
4bf58dd8d48988d1de931735,603
50327c8591d4c4b30a586d5d,620
4bf58dd8d48988d1df931735,858
4bf58dd8d48988d173941735,273
4bf58dd8d48988d1f4941735,866
4bf58dd8d48988d123941735,1118
4bf58dd8d48988d1e8931735,47
4bf58dd8d48988d148941735,1035
4bf58dd8d48988d115941735,1121
52f2ab2ebcbc57f1066b8b30,15
5032792091d4c4b30a586d5c,673
4bf58dd8d48988d114951735,1236
4bf58dd8d48988d16c941735,2108
4bf58dd8d48988d10d941735,529
4bf58dd8d48988d1cc941735,921
4bf58dd8d48988d113941735,856
4bf58dd8d48988d126951735,259
4bf58dd8d48988d1e2931735,3842
4bf58dd8d48988d1f7941735,316
4bf58dd8d48988d107951735,1248
52939a8c3cf9994f4e043a35,23
4bf58dd8d48988d171941735,4072
4bf58dd8d48988d1ca941735,5091
52e81612bcbc57f1066b79f1,295
4bf58dd8d48988d17e941735,377
4bf58dd8d48988d17f941735,1327
503288ae91d4c4b30a586d67,22
4bf58dd8d48988d16f941735,473
52e81612bcbc57f1066b79f7,34
4bf58dd8d48988d10b941735,451
4bf58dd8d48988d1f5931735,157
4bf58dd8d48988d10e941735,597
4bf58dd8d48988d1c0941735,1719
4bf58dd8d48988d1d1941735,433
4bf58dd8d48988d1fa931735,7881
4d4b7105d754a06379d81259,29187
52f2ab2ebcbc57f1066b8b18,85
5283c7b4e4b094cb91ec88d7,67
4f04af1f2fb6e1c99f3db0bb,511
4bf58dd8d48988d119941735,449
4bf58dd8d48988d1f2941735,939
4bf58dd8d48988d11c941735,43
4bf58dd8d48988d11e951735,134
4bf58dd8d48988d179941735,596
4bf58dd8d48988d18e941735,390
4bf58dd8d48988d104951735,1748
4d4ae6fc7a7b7dea34424761,799
4bf58dd8d48988d153941735,310
4bf58dd8d48988d108951735,1069
4bf58dd8d48988d10c951735,2186
4bf58dd8d48988d115951735,738
4edd64a0c7ddd24ca188df1a,111
52e81612bcbc57f1066b7a02,35
4bf58dd8d48988d1db931735,966
4bf58dd8d48988d1ee931735,690
4bf58dd8d48988d1f6941735,863
4bf58dd8d48988d1cd941735,584
4bf58dd8d48988d16e941735,3126
4bf58dd8d48988d108941735,119
4bf58dd8d48988d1d3941735,725
4bf58dd8d48988d103941735,21426
4e67e38e036454776db1fb3a,31498
52e81612bcbc57f1066b7a01,24
4bf58dd8d48988d1e3931735,173
4bf58dd8d48988d17a941735,220
4bf58dd8d48988d144941735,419
4bf58dd8d48988d186941735,874
4bf58dd8d48988d110951735,6155
4bf58dd8d48988d1e3941735,63
4bf58dd8d48988d1e2941735,468
4d954b0ea243a5684a65b473,1221
4bf58dd8d48988d1bc941735,430
4bf58dd8d48988d107941735,253
4bf58dd8d48988d156941735,82
4bf58dd8d48988d112951735,868
4bf58dd8d48988d1fe931735,4070
4bf58dd8d48988d18f941735,501
4bf58dd8d48988d181941735,1793
4bf58dd8d48988d119951735,633
4bf58dd8d48988d1cb941735,1810
4bf58dd8d48988d1f5941735,569
4bf58dd8d48988d14c941735,303
52af3b463cf9994f4e043bfe,3
4bf58dd8d48988d1dc931735,554
4bf58dd8d48988d1e1931735,435
4bf58dd8d48988d1f0941735,50
4bf58dd8d48988d1f8941735,1455
52e928d0bcbc57f1066b7e96,27
4bf58dd8d48988d1e0941735,615
4bf58dd8d48988d10a941735,134
4bf58dd8d48988d1c8941735,323
4bf58dd8d48988d1d4941735,672
52af3b213cf9994f4e043bfa,1
4bf58dd8d48988d126941735,6126
4bf58dd8d48988d163941735,3720
4bf58dd8d48988d11a941735,780
4bf58dd8d48988d164941735,1993
4bf58dd8d48988d18c941735,142
4bf58dd8d48988d184941735,1001
4def73e84765ae376e57713a,97
4bf58dd8d48988d1f1941735,145
4bf58dd8d48988d1c3941735,164
4bf58dd8d48988d111951735,790
4bf58dd8d48988d117951735,373
4bf58dd8d48988d102951735,493
4bf58dd8d48988d198941735,2601
4d4b7105d754a06372d81259,11225
503289d391d4c4b30a586d6a,34
4bf58dd8d48988d1f3941735,523
4bf58dd8d48988d199941735,373
4bf58dd8d48988d13d941735,1184
4bf58dd8d48988d13b941735,4536
4bf58dd8d48988d122951735,1576
4bf58dd8d48988d129941735,398
4e74f6cabd41c4836eac4c31,201
4bf58dd8d48988d1ff931735,1711
4bf58dd8d48988d13a941735,193
4bf58dd8d48988d131941735,4485
4bf58dd8d48988d159941735,509
4bf58dd8d48988d180941735,287
4bf58dd8d48988d123951735,465
4bf58dd8d48988d134941735,642
4deefb944765f83613cdba6e,856
4bf58dd8d48988d12d941735,726
4bf58dd8d48988d1f1931735,4106
52f2ab2ebcbc57f1066b8b46,1901
52e81612bcbc57f1066b79f2,179
52af3a7c3cf9994f4e043bed,10
4bf58dd8d48988d1a0941735,574
4bf58dd8d48988d169941735,40
4bf58dd8d48988d158941735,30
4bf58dd8d48988d14b941735,346
52e81612bcbc57f1066b7a27,49
4bf58dd8d48988d1fd941735,936
52e81612bcbc57f1066b79f9,72
4bf58dd8d48988d167941735,164
4bf58dd8d48988d1ae941735,1301
4bf58dd8d48988d162941735,2053
4bf58dd8d48988d152941735,42
4bf58dd8d48988d1fc941735,1252
50be8ee891d4fa8dcc7199a7,244
4d954b06a243a5684965b473,9009
4f2a25ac4b909258e854f55f,2259
530e33ccbcbc57f1066bbfe4,2535
52e816a6bcbc57f1066b7a54,79
4bf58dd8d48988d1a3941735,648
4bf58dd8d48988d1c6941735,327
4bf58dd8d48988d135941735,247
52e81612bcbc57f1066b79ec,23
52e81612bcbc57f1066b7a31,203
4bf58dd8d48988d130941735,6721
4bf58dd8d48988d132941735,3479
52e81612bcbc57f1066b7a22,37
4bf58dd8d48988d1fa941735,620
4bf58dd8d48988d12f941735,840
4bf58dd8d48988d129951735,2105
50328a8e91d4c4b30a586d6c,1109
52af3afc3cf9994f4e043bf8,15
4bf58dd8d48988d191941735,212
52e81612bcbc57f1066b7a05,44
4bf58dd8d48988d1b8941735,33
4bf58dd8d48988d1b4941735,210
4bf58dd8d48988d1e6941735,262
52e81612bcbc57f1066b79f8,23
4eb1bfa43b7b52c0e1adc2e8,108
4bf58dd8d48988d161941735,400
4bf58dd8d48988d12d951735,852
4bf58dd8d48988d189941735,90
503287a291d4c4b30a586d65,330
52e81612bcbc57f1066b7a09,27
5267e446e4b0ec79466e48c4,61
4bf58dd8d48988d1ed941735,1499
4fceea171983d5d06c3e9823,43
5293a7d53cf9994f4e043a45,96
52e81612bcbc57f1066b7a32,161
4bf58dd8d48988d100951735,738
4bf58dd8d48988d196941735,1429
4bf58dd8d48988d104941735,9204
52e81612bcbc57f1066b7a0c,158
4bf58dd8d48988d194941735,243
4bf58dd8d48988d192941735,37
4bf58dd8d48988d18b941735,94
4bf58dd8d48988d10a951735,3767
4bf58dd8d48988d174941735,2746
4bf58dd8d48988d109941735,488
4bf58dd8d48988d1a2941735,226
4bf58dd8d48988d1a6941735,133
4bf58dd8d48988d1a8941735,1037
4bf58dd8d48988d1af941735,555
4bf58dd8d48988d17b941735,325
4bf58dd8d48988d1e5941735,579
4bf58dd8d48988d128951735,832
52e81612bcbc57f1066b7a33,88
52f2ab2ebcbc57f1066b8b31,121
4bf58dd8d48988d136941735,56
4bf58dd8d48988d12c951735,745
4bf58dd8d48988d1f8931735,458
4bf58dd8d48988d1b3941735,226
4bf58dd8d48988d1ed931735,1951
4bf58dd8d48988d10b951735,273
4bf58dd8d48988d165941735,798
4bf58dd8d48988d1ff941735,1742
4bf58dd8d48988d168941735,181
52e81612bcbc57f1066b7a25,77
4eb1bdf03b7b55596b4a7491,156
4bf58dd8d48988d15a941735,756
4bf58dd8d48988d1e7941735,1444
4eb1bc533b7b2c5b1d4306cb,106
52939a643cf9994f4e043a33,13
4bf58dd8d48988d10f951735,2194
4bf58dd8d48988d11b951735,459
4eb1bdde3b7b55596b4a7490,208
4bf58dd8d48988d112941735,576
52e81612bcbc57f1066b7a34,113
4bf58dd8d48988d1fc931735,549
4bf58dd8d48988d127951735,811
52e81612bcbc57f1066b79fe,26
4bf58dd8d48988d1ab941735,535
4e39a956bd410d7aed40cbc3,313
52e81612bcbc57f1066b7a0a,55
54135bf5e4b08f3d2429dfe3,1
4bf58dd8d48988d1fd931735,1625
4bf58dd8d48988d166941735,325
50aaa4314b90af0d42d5de10,61
4bf58dd8d48988d1bf941735,36
4bf58dd8d48988d109951735,288
4bf58dd8d48988d101941735,291
4bf58dd8d48988d12a941735,279
52f2ab2ebcbc57f1066b8b37,103
5032833091d4c4b30a586d60,79
4bf58dd8d48988d1b1941735,73
4bf58dd8d48988d197941735,571
4bf58dd8d48988d1e8941735,337
4bf58dd8d48988d124951735,2473
4bf58dd8d48988d19f941735,113
4bf58dd8d48988d102941735,749
4f04ae1f2fb6e1c99f3db0ba,568
4c38df4de52ce0d596b336e1,1089
4bf58dd8d48988d12b941735,405
4bf58dd8d48988d1eb931735,266
4bf58dd8d48988d190941735,484
4bf58dd8d48988d17c941735,126
53e0feef498e5aac066fd8a9,36
4bf58dd8d48988d113951735,2539
5370f356bcbc57f1066c94c2,50
52e81612bcbc57f1066b7a3a,195
4bf58dd8d48988d1a7941735,490
52f2ab2ebcbc57f1066b8b22,18
52f2ab2ebcbc57f1066b8b2c,15
52e81612bcbc57f1066b7a35,45
4eb1c1623b7b52c0e1adc2ec,691
559acbe0498e472f1a53fa23,8
52e81612bcbc57f1066b79fc,16
52e81612bcbc57f1066b79fd,28
4bf58dd8d48988d1ad941735,356
4f4532974b9074f6e4fb0104,72
52e81612bcbc57f1066b7a04,20
52f2ab2ebcbc57f1066b8b28,185
4bf58dd8d48988d15b941735,136
4bf58dd8d48988d172941735,1245
4bf58dd8d48988d1a9941735,102
4bf58dd8d48988d133951735,147
4bf58dd8d48988d1e1941735,178
512e7cae91d4cbb4e5efe0af,365
4d954af4a243a5684765b473,499
4bf58dd8d48988d177941735,2520
4eb1bd1c3b7b55596b4a748f,80
4deefc054765f83613cdba6f,63
4bf58dd8d48988d1f4931735,311
4bf58dd8d48988d106951735,829
5032856091d4c4b30a586d63,290
4f04b1572fb6e1c99f3db0bf,217
52e81612bcbc57f1066b79ea,16
52e81612bcbc57f1066b7a03,8
52f2ab2ebcbc57f1066b8b3f,103
4bf58dd8d48988d1b2941735,311
4bf58dd8d48988d125941735,4066
52f2ab2ebcbc57f1066b8b26,38
4bf58dd8d48988d1ac941735,139
52f2ab2ebcbc57f1066b8b51,556
4bf58dd8d48988d10e951735,99
52f2ab2ebcbc57f1066b8b1c,28
4bf58dd8d48988d1c7941735,542
52f2ab2ebcbc57f1066b8b3c,319
52e81612bcbc57f1066b7a3d,373
52f2ab2ebcbc57f1066b8b19,8
4bf58dd8d48988d187941735,79
50aa9e744b90af0d42d5de0e,125
4bf58dd8d48988d1fb941735,257
4bf58dd8d48988d1df941735,870
4bf58dd8d48988d1dd931735,149
4eb1c0253b7b52c0e1adc2e9,76
4d954afda243a5684865b473,477
52e81612bcbc57f1066b79ed,102
507c8c4091d498d9fc8c67a9,568
4cce455aebf7b749d5e191f5,430
4bf58dd8d48988d121951735,529
4d1cf8421a97d635ce361c31,331
4bf58dd8d48988d15e941735,776
4f04aa0c2fb6e1c99f3db0b8,1166
4bf58dd8d48988d120951735,324
4eb1daf44b900d56c88a4600,202
4bf58dd8d48988d1ef941735,482
52e81612bcbc57f1066b79f4,32
4bf58dd8d48988d1a5941735,245
4bf58dd8d48988d19a941735,84
4bf58dd8d48988d15f941735,282
52f2ab2ebcbc57f1066b8b42,130
4bf58dd8d48988d139941735,212
52f2ab2ebcbc57f1066b8b52,1935
52e81612bcbc57f1066b7a3b,74
52f2ae52bcbc57f1066b8b81,89
5413605de4b0ae91d18581a9,3
4bf58dd8d48988d1f6931735,931
4bf58dd8d48988d128941735,343
4bf58dd8d48988d100941735,456
52f2ab2ebcbc57f1066b8b17,12
52f2ab2ebcbc57f1066b8b50,15
52e81612bcbc57f1066b7a37,43
4e52d2d203646f7c19daa8ae,104
4bf58dd8d48988d105951735,302
52f2ab2ebcbc57f1066b8b1f,164
5283c7b4e4b094cb91ec88d4,27
52f2ab2ebcbc57f1066b8b41,70
5032850891d4c4b30a586d62,149
4bf58dd8d48988d18d941735,98
4bf58dd8d48988d1b0941735,229
52c71aaf3cf9994f4e043d17,68
4bf58dd8d48988d105941735,157
4f4530a74b9074f6e4fb0100,69
5453de49498eade8af355881,23
4bf58dd8d48988d15c941735,315
4bf58dd8d48988d12a951735,787
52e81612bcbc57f1066b7a14,28
52af39fb3cf9994f4e043be9,13
4bf58dd8d48988d1a1941735,324
4bf58dd8d48988d1e4941735,80
4bf58dd8d48988d1f0931735,611
4f04b10d2fb6e1c99f3db0be,119
4bf58dd8d48988d1bb941735,13
4bf58dd8d48988d11a951735,205
4bf58dd8d48988d1fb931735,195
4bf58dd8d48988d178941735,1651
52e81612bcbc57f1066b7a48,81
52dea92d3cf9994f4e043dbb,254
52e81612bcbc57f1066b79eb,17
4bf58dd8d48988d12b951735,2608
5032897c91d4c4b30a586d69,192
54135bf5e4b08f3d2429dfde,2
4bf58dd8d48988d116951735,281
4bf58dd8d48988d15d941735,39
4bf58dd8d48988d11d951735,308
52f2ab2ebcbc57f1066b8b4a,55
4bf58dd8d48988d1f9931735,2342
4bf58dd8d48988d182941735,357
50aaa49e4b90af0d42d5de11,42
52f2ab2ebcbc57f1066b8b2b,17
4bf58dd8d48988d19e941735,142
52af3b813cf9994f4e043c04,12
4bf58dd8d48988d12e941735,674
52f2ab2ebcbc57f1066b8b25,9
52af3add3cf9994f4e043bf5,2
4f04afc02fb6e1c99f3db0bc,614
52f2ab2ebcbc57f1066b8b4c,182
4e39a891bd410d7aed40cbc2,77
5032781d91d4c4b30a586d5b,137
52f2ab2ebcbc57f1066b8b32,36
5109983191d435c0d71c2bb1,103
52e81612bcbc57f1066b7a3e,11
52e81612bcbc57f1066b7a39,35
4f4531b14b9074f6e4fb0103,147
52e81612bcbc57f1066b7a11,21
4bf58dd8d48988d1aa941735,156
5267e4d9e4b0ec79466e48c8,879
4d4b7105d754a06373d81259,2580
4bf58dd8d48988d106941735,151
4bf58dd8d48988d130951735,537
54f4ba06498e2cf5561da814,74
4e39a9cebd410d7aed40cbc4,8
52af0bd33cf9994f4e043bdd,13
52f2ab2ebcbc57f1066b8b29,23
4bf58dd8d48988d19b941735,262
4bf58dd8d48988d1ec931735,28
4f4533804b9074f6e4fb0105,766
52f2ab2ebcbc57f1066b8b24,13
4e4c9077bd41f78e849722f9,328
4f2a210c4b9023bd5841ed28,814
4f4531084b9074f6e4fb0101,71
52af3b773cf9994f4e043c03,16
4f4533814b9074f6e4fb0106,279
52f2ab2ebcbc57f1066b8b47,20
52f2ab2ebcbc57f1066b8b4f,1641
52f2ab2ebcbc57f1066b8b1d,49
52e81612bcbc57f1066b79e8,14
4bf58dd8d48988d1ef931735,13
4bf58dd8d48988d127941735,598
4bf58dd8d48988d12c941735,217
52f2ab2ebcbc57f1066b8b1e,7
4e52adeebd41615f56317744,231
4eb1bf013b7b6f98df247e07,40
4eb1bea83b7b6f98df247e06,463
52f2ab2ebcbc57f1066b8b36,55
4eb1baf03b7b2c5b1d4306ca,57
52960bac3cf9994f4e043ac4,3
5267e4d9e4b0ec79466e48d1,141
52f2ab2ebcbc57f1066b8b2f,25
4eb1d4dd4b900d56c88a45fd,133
4f04ad622fb6e1c99f3db0b9,91
5032885091d4c4b30a586d66,183
50aa9e094b90af0d42d5de0d,214
52af3b593cf9994f4e043c00,4
5032829591d4c4b30a586d5e,14
52e81612bcbc57f1066b79ff,13
4f04b25d2fb6e1c99f3db0c0,92
52e81612bcbc57f1066b7a42,139
52f2ab2ebcbc57f1066b8b48,40
52e81612bcbc57f1066b79fb,17
4f04b08c2fb6e1c99f3db0bd,196
4bf58dd8d48988d19c941735,35
52e81612bcbc57f1066b7a0e,13
4bf58dd8d48988d138941735,122
4f4530164b9074f6e4fb00ff,131
4bf58dd8d48988d160941735,47
52e81612bcbc57f1066b79fa,5
52af3a723cf9994f4e043bec,2
4bf58dd8d48988d18a941735,11
4bf58dd8d48988d188941735,211
52f2ab2ebcbc57f1066b8b39,29
522e32fae4b09b556e370f19,87
52e81612bcbc57f1066b7a26,45
4bf58dd8d48988d185941735,82
4bf58dd8d48988d1b7941735,34
4bf58dd8d48988d1ba941735,38
5310b8e5bcbc57f1066bcbf1,30
52e81612bcbc57f1066b7a47,7
52f2ab2ebcbc57f1066b8b56,16
4f4534884b9074f6e4fb0174,118
52f2ab2ebcbc57f1066b8b33,74
52e81612bcbc57f1066b7a23,35
4d954b16a243a5684b65b473,139
4f4531504b9074f6e4fb0102,596
52e81612bcbc57f1066b7a45,31
52e81612bcbc57f1066b79e7,44
52f2ab2ebcbc57f1066b8b23,22
4bf58dd8d48988d193941735,67
52e81612bcbc57f1066b79ef,12
52e81612bcbc57f1066b7a40,18
52e81612bcbc57f1066b7a30,6
52e81612bcbc57f1066b7a2e,38
52e81612bcbc57f1066b7a0d,53
53d6c1b0e4b02351e88a83d2,28
554a5e17498efabeda6cc559,60
52e81612bcbc57f1066b7a13,10
52e81612bcbc57f1066b7a2d,11
4bf58dd8d48988d12f951735,94
52e81612bcbc57f1066b7a36,43
4e0e22f5a56208c4ea9a85a0,61
5283c7b4e4b094cb91ec88d8,38
4cae28ecbf23941eb1190695,819
4f4533814b9074f6e4fb0107,141
52f2ab2ebcbc57f1066b8b1a,11
52e928d0bcbc57f1066b7e9c,8
53fca564498e1a175f32528b,17
4eb1d5724b900d56c88a45fe,11
50328a4b91d4c4b30a586d6b,30
52f2ab2ebcbc57f1066b8b57,29
52f2ab2ebcbc57f1066b8b40,23
52f2ab2ebcbc57f1066b8b2e,13
52f2ab2ebcbc57f1066b8b16,5
52f2ab2ebcbc57f1066b8b3b,24
5267e4d8e4b0ec79466e48c5,104
52e81612bcbc57f1066b7a38,6
5267e4d9e4b0ec79466e48c7,426
5032891291d4c4b30a586d68,217
54541900498ea6ccd0202697,15
52e81612bcbc57f1066b79e9,8
52f2ab2ebcbc57f1066b8b20,6
52e81612bcbc57f1066b7a3f,5
52e81612bcbc57f1066b7a2c,13
52e81612bcbc57f1066b7a46,28
4eb1d80a4b900d56c88a45ff,47
4bf58dd8d48988d19d941735,24
5267e4d9e4b0ec79466e48c9,284
52f2ab2ebcbc57f1066b8b49,38
5032764e91d4c4b30a586d5a,183
53d6c1b0e4b02351e88a83d4,2
4bf58dd8d48988d1f7931735,755
52f2ab2ebcbc57f1066b8b4e,13
530e33ccbcbc57f1066bbff9,30
52e81612bcbc57f1066b7a3c,9
5454152e498ef71e2b9132c6,4
52f2ab2ebcbc57f1066b8b2d,18
52f2ab2ebcbc57f1066b8b35,12
4f2a23984b9023bd5841ed2c,499
4bf58dd8d48988d141941735,74
530e33ccbcbc57f1066bbff7,6
5267e4d9e4b0ec79466e48c6,599
530e33ccbcbc57f1066bbff3,14
52e81612bcbc57f1066b79ee,42
4bf58dd8d48988d1b6941735,26
4bf58dd8d48988d1de941735,30
52f2ab2ebcbc57f1066b8b1b,18
4f452cd44b9081a197eba860,16
4c2cd86ed066bed06c3c5209,43
52f2ab2ebcbc57f1066b8b27,12
52f2ab2ebcbc57f1066b8b21,3
52e81612bcbc57f1066b7a44,7
52e81612bcbc57f1066b7a21,11
4bf58dd8d48988d1b9941735,2
4bf58dd8d48988d1b5941735,3
52f2ab2ebcbc57f1066b8b44,81
55888a5a498e782e3303b43a,2
4eb1d4d54b900d56c88a45fc,44
4bf58dd8d48988d132951735,59
52e81612bcbc57f1066b79e6,9
50aaa5234b90af0d42d5de12,11
52f2ab2ebcbc57f1066b8b34,9
52e81612bcbc57f1066b7a2f,6
52f2ab2ebcbc57f1066b8b4b,11
54541b70498ea6ccd0204bff,4
52e81612bcbc57f1066b7a49,4
52e928d0bcbc57f1066b7e97,4
4bf58dd8d48988d1e9941735,36
52741d85e4b0d5d1e3c6a6d9,115
53d6c1b0e4b02351e88a83d6,1
52e81612bcbc57f1066b7a28,8
52e928d0bcbc57f1066b7e9d,44
5294c7523cf9994f4e043a62,1
52e81612bcbc57f1066b7a12,7
52e81612bcbc57f1066b7a24,16
530faca9bcbc57f1066bc2f4,3
55077a22498e5e9248869ba2,3
52e81612bcbc57f1066b7a43,3
55a5a1ebe4b013909087cb7f,2
4bf58dd8d48988d1ec941735,3
52f2ab2ebcbc57f1066b8b2a,5
52f2ab2ebcbc57f1066b8b3d,33
52e81612bcbc57f1066b7a10,6
5345731ebcbc57f1066c39b2,8
5294cbda3cf9994f4e043a63,1
52f2ab2ebcbc57f1066b8b55,26
4bf58dd8d48988d1ea941735,3
4fbc1be21983fc883593e321,32
52f2ab2ebcbc57f1066b8b43,4
53d6c1b0e4b02351e88a83d8,1
52af3ac83cf9994f4e043bf3,1
5283c7b4e4b094cb91ec88db,1
530faca9bcbc57f1066bc2f2,1
545419b1498ea6ccd0202f58,1
52f2ab2ebcbc57f1066b8b38,3
52af3b3b3cf9994f4e043bfd,1
530e33ccbcbc57f1066bbff8,4
55a59bace4b013909087cb24,1
5032872391d4c4b30a586d64,13
52af3b6e3cf9994f4e043c02,1
5032848691d4c4b30a586d61,26
5454144b498ec1f095bff2f2,2
4bf58dd8d48988d1eb941735,1
52af3b293cf9994f4e043bfb,1
52e928d0bcbc57f1066b7e9a,2
52f2ab2ebcbc57f1066b8b54,8
4eb1c0f63b7b52c0e1adc2eb,1
530faca9bcbc57f1066bc2f3,1
52e81612bcbc57f1066b79f3,2
52960eda3cf9994f4e043acc,1
52e81612bcbc57f1066b7a41,5
52f2ab2ebcbc57f1066b8b53,5
52e81612bcbc57f1066b7a0f,4
52939ae13cf9994f4e043a3b,1
52e81612bcbc57f1066b7a29,1
