0,4757
1,1455
2,251
3,29
4,1149
5,427
6,51
7,1229
8,799
9,24
10,21
11,2
12,62
13,938
14,383
15,199
16,207
17,101
18,100
19,23
20,277
21,2
22,1
23,6
24,307
25,26
26,179
27,17
28,387
29,81
30,60
31,12
32,2
33,48
34,92
35,491
36,114
37,44
38,51
39,45
40,106
41,21
42,2
43,182
44,101
45,101
46,328
47,48
48,106
49,66
50,15
51,2
52,22
53,14
54,10
55,129
56,11
57,97
58,4
59,40
60,40
61,245
62,29
63,7
64,19
65,87
66,5
67,95
68,50
69,49
70,30
71,10
72,2
73,1
74,99
75,42
76,30
77,1
78,75
79,218
80,113
81,18
82,12
83,127
84,581
85,60
86,21
87,324
88,213
89,1
90,74
91,9
92,3
93,6
94,4
95,81
96,7
97,56
98,69
99,22
100,24
101,5
102,229
103,12
104,4
105,42
106,142
107,55
108,14
109,34
110,26
111,11
112,10
113,1
114,2
115,111
116,15
117,76
118,281
119,25
120,24
121,6
122,8
123,6
124,28
125,6
126,1
127,61
128,31
129,6
130,33
131,7
132,23
133,215
134,10
135,60
136,104
137,106
138,96
139,84
140,24
141,11
142,81
143,40
144,2
145,1
146,34
147,14
148,6
149,4
150,20
151,3
152,137
153,4
154,21
155,40
156,3
157,1
158,44
159,35
160,30
161,53
162,6
163,2
164,2
165,8
166,4
167,25
168,24
169,44
170,57
171,127
172,6
173,28
174,9
175,7
176,17
177,5
178,6
179,155
180,76
181,2
182,8
183,1
184,40
185,15
186,35
187,56
188,3
189,178
190,23
191,14
192,30
193,6
194,12
195,40
196,30
197,15
198,1
199,61
200,38
201,7
202,7
203,7
204,7
205,54
206,77
207,5
208,3
209,10
210,8
211,12
212,4
213,105
214,15
215,22
216,2
217,6
218,5
219,15
220,24
221,6
222,92
223,28
224,5
225,38
226,90
227,30
228,9
229,1
230,70
231,41
232,94
233,91
234,80
235,33
236,9
237,69
238,3
239,3
240,2
241,64
242,1
243,1
244,6
245,6
246,13
247,107
248,13
249,16
250,44
251,16
252,160
253,13
254,11
255,25
256,39
257,55
258,6
259,1
260,9
261,70
262,9
263,33
264,25
265,5
266,19
267,9
268,13
269,9
270,9
271,1
272,11
273,3
274,10
275,3
276,1
277,4
278,5
279,1
280,16
281,1
282,4
283,2
284,88
285,24
286,5
287,2
288,1
289,4
290,2
291,9
292,45
293,6
294,4
295,47
296,3
297,1
298,1
299,23
300,2
301,1
302,23
303,3
304,7
305,5
306,2
307,1
308,3
309,90
310,40
311,1
312,5
313,29
314,2
315,6
316,20
317,31
318,5
319,1
320,91
321,10
322,5
323,3
324,23
325,20
326,6
327,2
328,34
329,2
330,105
331,1
332,4
333,1
334,2
335,3
336,114
337,2
338,1
339,1
340,1
341,4
342,1
343,3
344,3
345,14
346,26
347,1
348,7
349,2
350,2
351,1
352,23
353,1
354,1
355,12
356,1
357,4
