{
  "metadata": {
    "dagPath": "VotesUEAbstain/DAG.txt",
    "itemNamesPath": "VotesUEAbstain/itemsNames.txt",
    "sgAndSdnodeFilePath": "VotesUEAbstain/probasModel_Verts_ALE.json",
    "resultsPath": "VotesUEAbstain/antichainsVerts_ALE.json",
    "distType": "binomial",
    "maxScaleExponent": 17,
    "scaleBase": 2.0,
    "choiceNodeChild": 0.2,
    "belongToAntichain": 0.2,
    "accountForValueInDL": true,
    "minXHat": 4,
    "maxPatternSize": 10,
    "statistics": {
      "nbCallsFactorFunction": 0,
      "totalTimeMS": 740,
      "timePerNodeMS": 0,
      "updateTimeMS": 69,
      "usedMemoryInKB": 316928
    }
  },
  "patterns": [
    {
      "sdnodes": [
        {
          "id": "79",
          "name": "1 European citizenship",
          "xHat": 116.0,
          "xBar": 493.1067899936935,
          "yBar": 8.945756308407278,
          "yHat": 6.857980995127572,
          "currentMode": 9.0,
          "marginProba": 0.9999999999999998,
          "logMarginals": [
            -385.6044262336372,
            -375.42741771657484,
            -358.2244661351987,
            -329.73111783707583,
            -284.20972677637724,
            -215.77933407756512,
            -123.94121999119443,
            -30.37412188008343,
            -0.806393128506419,
            -0.5914312149146201,
            -54.195137100020084,
            -818.5759920326657,
            -3988.194007007212,
            -14263.0003597965,
            -1.7976931348623157E308,
            -1.7976931348623157E308,
            -1.7976931348623157E308
          ],
          "observedValue": 6.0,
          "logProba": -123.94121999119443,
          "ic": 178.80938344302427,
          "dl": 6.731319031025064,
          "si": 21.076528314324648,
          "isObserved": false
        },
        {
          "id": "352",
          "name": "8.70.59 2019 budget",
          "xHat": 557.0,
          "xBar": 54.03910027328148,
          "yBar": 5.75593174952726,
          "yHat": 9.121533517340032,
          "currentMode": 5.0,
          "marginProba": 0.9999999999999999,
          "logMarginals": [
            -23.659200631851803,
            -19.693786979859077,
            -14.771143816804276,
            -9.399816937495432,
            -2.6782318867823025,
            -0.611195836112647,
            -0.9982586880744417,
            -3.915343400727943,
            -9.4770255375611,
            -128.07701093160364,
            -738.3924849835394,
            -2779.1807372655285,
            -7730.573943238088,
            -19826.825220270508,
            -1.7976931348623157E308,
            -1.7976931348623157E308,
            -1.7976931348623157E308
          ],
          "observedValue": 9.0,
          "logProba": -128.07701093160364,
          "ic": 184.77606852290614,
          "dl": 8.731319031025064,
          "si": 21.779830370443307,
          "isObserved": false
        },
        {
          "id": "189",
          "name": "7.10 Free movement and integration of third-country nationals",
          "xHat": 17.0,
          "xBar": 403.0416228715577,
          "yBar": 8.65478502607036,
          "yHat": 4.08746284125034,
          "currentMode": 8.0,
          "marginProba": 1.0000000000000002,
          "logMarginals": [
            -186.78090401497113,
            -177.78561157588112,
            -162.9905940596552,
            -139.4953730649692,
            -104.72376542646711,
            -61.01389912325774,
            -31.48513306527503,
            -2.6935759810375526,
            -0.4975374446279528,
            -1.1259792575244445,
            -14.417231870424905,
            -211.33937571114595,
            -2147.7452763172023,
            -9954.287677293873,
            -1.7976931348623157E308,
            -1.7976931348623157E308,
            -1.7976931348623157E308
          ],
          "observedValue": 4.0,
          "logProba": -104.72376542646711,
          "ic": 151.08445704398318,
          "dl": 6.731319031025064,
          "si": 17.808549950939977,
          "isObserved": false
        }
      ]
    },
    {
      "sdnodes": [
        {
          "id": "20",
          "name": "8.70.03 Budgetary control and discharge",
          "xHat": 342.0,
          "xBar": 625.9529114988438,
          "yBar": 9.289910321529613,
          "yHat": 8.417852514885897,
          "currentMode": 10.0,
          "marginProba": 0.9999999999999999,
          "logMarginals": [
            -1009.207417841323,
            -998.3919218220466,
            -979.9223393378012,
            -948.9370646590661,
            -898.5990102534425,
            -821.2180673978872,
            -714.3283986862133,
            -518.3211507406314,
            -297.6843474662146,
            -99.7002656280967,
            -0.35238514763830153,
            -1.2140544788975944,
            -412.3812428860773,
            -2885.640993880643,
            -1.7976931348623157E308,
            -1.7976931348623157E308,
            -1.7976931348623157E308
          ],
          "observedValue": 8.0,
          "logProba": -297.6843474662146,
          "ic": 429.4677318397749,
          "dl": 9.053247125912426,
          "si": 50.622001127217274,
          "isObserved": false
        }
      ]
    },
    {
      "sdnodes": [
        {
          "id": "8",
          "name": "8.70 Budget of the Union",
          "xHat": 4264.0,
          "xBar": 1801.303342442716,
          "yBar": 10.81482543858083,
          "yHat": 12.057991722759178,
          "currentMode": 11.0,
          "marginProba": 0.9999999999999999,
          "logMarginals": [
            -1.7976931348623157E308,
            -1.7976931348623157E308,
            -1.7976931348623157E308,
            -1.7976931348623157E308,
            -1.7976931348623157E308,
            -1.7976931348623157E308,
            -1.7976931348623157E308,
            -1.7976931348623157E308,
            -1.7976931348623157E308,
            -694.3669584607159,
            -275.70877148507145,
            0.0,
            -241.41060698330216,
            -3690.061182156727,
            -1.7976931348623157E308,
            -1.7976931348623157E308,
            -1.7976931348623157E308
          ],
          "observedValue": 12.0,
          "logProba": -241.41060698330216,
          "ic": 348.2818855128046,
          "dl": 6.731319031025064,
          "si": 41.05250451644221,
          "isObserved": false
        }
      ]
    },
    {
      "sdnodes": [
        {
          "id": "46",
          "name": "3.70 Environmental policy",
          "xHat": 246.0,
          "xBar": 740.7859995795669,
          "yBar": 9.532913022541345,
          "yHat": 7.94251450533924,
          "currentMode": 9.0,
          "marginProba": 0.9999999999999998,
          "logMarginals": [
            -334.26221103443174,
            -324.6431061140055,
            -308.56590481287014,
            -282.36438213363147,
            -241.58893099110207,
            -183.30859754422966,
            -114.45069369728833,
            -74.44060909772566,
            -2.31281030406808,
            -0.40286267384169605,
            -1.4583773078583135,
            -22.64000627652581,
            -1385.7874390742727,
            -4290.469712342442,
            -1.7976931348623157E308,
            -1.7976931348623157E308,
            -1.7976931348623157E308
          ],
          "observedValue": 7.0,
          "logProba": -74.44060909772566,
          "ic": 107.39509758604265,
          "dl": 6.731319031025064,
          "si": 12.658820088226141,
          "isObserved": false
        },
        {
          "id": "26",
          "name": "3.20 Transport policy in general",
          "xHat": 92.0,
          "xBar": 405.2932520496111,
          "yBar": 8.66282234513578,
          "yHat": 6.523561956057013,
          "currentMode": 8.0,
          "marginProba": 1.0,
          "logMarginals": [
            -207.22937464920813,
            -199.05063228287406,
            -185.85245001901956,
            -165.40473404055422,
            -136.11445257507842,
            -100.66623218809775,
            -50.537411551291484,
            -3.5839023784259325,
            -0.3722672236450535,
            -1.269417401573719,
            -6.181398492462563,
            -497.9879659858958,
            -2333.426489296511,
            -8214.374184562423,
            -1.7976931348623157E308,
            -1.7976931348623157E308,
            -1.7976931348623157E308
          ],
          "observedValue": 6.0,
          "logProba": -50.537411551291484,
          "ic": 72.91007302441284,
          "dl": 4.409390936137703,
          "si": 8.594018887091378,
          "isObserved": false
        },
        {
          "id": "351",
          "name": "3.10.30 Agricultural statistics",
          "xHat": 89.0,
          "xBar": 4.50325835610679,
          "yBar": 2.170969248806104,
          "yHat": 6.475733430966398,
          "currentMode": 2.0,
          "marginProba": 1.0,
          "logMarginals": [
            -2.3285090367850216,
            -1.378830245396557,
            -0.8469503175884938,
            -1.5803781205916039,
            -4.131049041696201,
            -12.930510420012752,
            -48.55890474004275,
            -163.40115229291268,
            -486.7236735931142,
            -1145.4397157508188,
            -2846.215972124134,
            -7021.70948606558,
            -15790.011642158657,
            -34248.18242164828,
            -1.7976931348623157E308,
            -1.7976931348623157E308,
            -1.7976931348623157E308
          ],
          "observedValue": 6.0,
          "logProba": -48.55890474004275,
          "ic": 70.05569105945925,
          "dl": 6.409390936137703,
          "si": 8.257568634057474,
          "isObserved": false
        },
        {
          "id": "200",
          "name": "3.10.08 Animal health requirements",
          "xHat": 7.0,
          "xBar": 87.81353794408241,
          "yBar": 6.456371467668353,
          "yHat": 2.807354922057604,
          "currentMode": 6.0,
          "marginProba": 1.0,
          "logMarginals": [
            -43.88831837640805,
            -38.3704810522737,
            -29.742789662458335,
            -18.026107198483487,
            -6.269496686052889,
            -1.394163733148389,
            -0.7205582644942297,
            -1.4273234894925508,
            -3.745003850789658,
            -67.6829504007593,
            -307.92288209915637,
            -1483.8244876572198,
            -4296.212965031791,
            -11261.15076298242,
            -1.7976931348623157E308,
            -1.7976931348623157E308,
            -1.7976931348623157E308
          ],
          "observedValue": 2.0,
          "logProba": -29.742789662458335,
          "ic": 42.90977514823217,
          "dl": 4.409390936137703,
          "si": 5.057839099149925,
          "isObserved": false
        }
      ]
    },
    {
      "sdnodes": [
        {
          "id": "3",
          "name": "3.40.02 Iron and steel industry",
          "xHat": 274.0,
          "xBar": 67.54887534160186,
          "yBar": 6.077859844414623,
          "yHat": 8.098032082960527,
          "currentMode": 5.0,
          "marginProba": 1.0000000000000002,
          "logMarginals": [
            -16.62037931703935,
            -12.513269837678308,
            -7.392847246297606,
            -2.7642626224651394,
            -0.8309770971318358,
            -0.7401157766632878,
            -3.7432952695437507,
            -40.57882161770067,
            -120.31842703528105,
            -275.41689173082955,
            -1011.0772539579809,
            -2526.781393325042,
            -6443.988710465346,
            -15012.04249891054,
            -1.7976931348623157E308,
            -1.7976931348623157E308,
            -1.7976931348623157E308
          ],
          "observedValue": 8.0,
          "logProba": -120.31842703528105,
          "ic": 173.58279801136055,
          "dl": 8.731319031025064,
          "si": 20.460462905918394,
          "isObserved": false
        },
        {
          "id": "52",
          "name": "3.40.05 Aeronautical industry",
          "xHat": 152.0,
          "xBar": 51.787471095228085,
          "yBar": 5.694531204863117,
          "yHat": 7.247927513443586,
          "currentMode": 4.0,
          "marginProba": 1.0000000000000002,
          "logMarginals": [
            -12.648611396059778,
            -9.063241067875197,
            -4.8934786309375795,
            -1.6900621276593029,
            -0.6900676967829895,
            -1.1838221941939082,
            -8.381961421889855,
            -58.00197518822597,
            -153.0510839454348,
            -364.12341548243626,
            -1188.1414558282295,
            -3007.47179988748,
            -7405.259898251023,
            -16934.475124695717,
            -1.7976931348623157E308,
            -1.7976931348623157E308,
            -1.7976931348623157E308
          ],
          "observedValue": 7.0,
          "logProba": -58.00197518822597,
          "ic": 83.67916196581831,
          "dl": 4.08746284125034,
          "si": 9.86338743824091,
          "isObserved": false
        },
        {
          "id": "67",
          "name": "3.15 Fisheries policy",
          "xHat": 319.0,
          "xBar": 216.1564010931259,
          "yBar": 7.75593174952726,
          "yHat": 8.31741261376487,
          "currentMode": 6.0,
          "marginProba": 1.0,
          "logMarginals": [
            -69.6021808060691,
            -62.781089218159195,
            -52.291963377302636,
            -37.245832052757805,
            -18.655081577131114,
            -3.5575095072256318,
            -0.15571313001078124,
            -2.1568791764434536,
            -49.99286144047824,
            -149.53589221627908,
            -748.7114731044187,
            -1963.365702649941,
            -6062.228998098001,
            -14778.62977151434,
            -1.7976931348623157E308,
            -1.7976931348623157E308,
            -1.7976931348623157E308
          ],
          "observedValue": 8.0,
          "logProba": -49.99286144047824,
          "ic": 72.12445328002704,
          "dl": 4.409390936137703,
          "si": 8.501416717853902,
          "isObserved": false
        }
      ]
    },
    {
      "sdnodes": [
        {
          "id": "70",
          "name": "3.15.15 Fisheries agreements and cooperation",
          "xHat": 14.0,
          "xBar": 69.80050451965525,
          "yBar": 6.12516555919298,
          "yHat": 3.8073549220576037,
          "currentMode": 6.0,
          "marginProba": 1.0000000000000002,
          "logMarginals": [
            -98.90252997158063,
            -91.0638512264552,
            -78.5794114554908,
            -59.697333083137664,
            -34.10465690414139,
            -8.314784421991362,
            -0.384126207979989,
            -1.1434747412906745,
            -42.19195352069187,
            -1.7976931348623157E308,
            -1.7976931348623157E308,
            -1.7976931348623157E308,
            -1.7976931348623157E308,
            -1.7976931348623157E308,
            -1.7976931348623157E308,
            -1.7976931348623157E308,
            -1.7976931348623157E308
          ],
          "observedValue": 3.0,
          "logProba": -59.697333083137664,
          "ic": 86.12504639333936,
          "dl": 9.053247125912426,
          "si": 10.151687478191773,
          "isObserved": false
        },
        {
          "id": "106",
          "name": "4.10.04 Gender equality",
          "xHat": 14.0,
          "xBar": 321.9829724616355,
          "yBar": 8.330840585584493,
          "yHat": 3.8073549220576037,
          "currentMode": 8.0,
          "marginProba": 0.9999999999999997,
          "logMarginals": [
            -79.55295044941886,
            -72.46154297094859,
            -61.46763981793674,
            -45.55427461944805,
            -25.816159406606403,
            -10.623642219793737,
            -5.846176134373536,
            -2.408825231560286,
            -0.12812896609420932,
            -3.598802207706285,
            -9.6036919714943,
            -22.07387951648184,
            -1254.5015177133123,
            -5031.560362044503,
            -1.7976931348623157E308,
            -1.7976931348623157E308,
            -1.7976931348623157E308
          ],
          "observedValue": 3.0,
          "logProba": -45.55427461944805,
          "ic": 65.72092608477168,
          "dl": 8.731319031025064,
          "si": 7.74662343103877,
          "isObserved": false
        },
        {
          "id": "332",
          "name": "3.15.03 Fishing fleets",
          "xHat": 93.0,
          "xBar": 11.258145890266976,
          "yBar": 3.492897343693467,
          "yHat": 6.539158811108032,
          "currentMode": 4.0,
          "marginProba": 1.0,
          "logMarginals": [
            -13.061264014719654,
            -9.319877085117923,
            -4.847705589945917,
            -1.1992499851558023,
            -0.39828790381739054,
            -3.9542516569983945,
            -26.3456041077784,
            -118.73202810414364,
            -424.62910639319193,
            -1.7976931348623157E308,
            -1.7976931348623157E308,
            -1.7976931348623157E308,
            -1.7976931348623157E308,
            -1.7976931348623157E308,
            -1.7976931348623157E308,
            -1.7976931348623157E308,
            -1.7976931348623157E308
          ],
          "observedValue": 6.0,
          "logProba": -26.3456041077784,
          "ic": 38.0086723955158,
          "dl": 4.08746284125034,
          "si": 4.480138818829033,
          "isObserved": false
        },
        {
          "id": "88",
          "name": "8.40.01 European Parliament",
          "xHat": 159.0,
          "xBar": 481.8486441034265,
          "yBar": 8.91243623520725,
          "yHat": 7.312882955284356,
          "currentMode": 9.0,
          "marginProba": 1.0000000000000002,
          "logMarginals": [
            -521.8850937404991,
            -511.27718892460985,
            -493.258155240874,
            -463.31874944325887,
            -415.67901179883506,
            -333.99513061413586,
            -196.17306066354104,
            -43.179867474102366,
            -8.499015769686821,
            -0.4319696811394351,
            -1.07574108024437,
            -4.654113504132965,
            -1045.7264468799342,
            -4265.7717202266385,
            -1.7976931348623157E308,
            -1.7976931348623157E308,
            -1.7976931348623157E308
          ],
          "observedValue": 7.0,
          "logProba": -43.179867474102366,
          "ic": 62.29538067113014,
          "dl": 9.053247125912426,
          "si": 7.34284929171556,
          "isObserved": false
        },
        {
          "id": "324",
          "name": "8.10 Revision of the Treaties",
          "xHat": 24.0,
          "xBar": 54.03910027328148,
          "yBar": 5.75593174952726,
          "yHat": 4.584962500721157,
          "currentMode": 6.0,
          "marginProba": 0.9999999999999999,
          "logMarginals": [
            -80.03655149825204,
            -72.97946199090097,
            -62.011786318120585,
            -45.98033931699956,
            -25.322479526983898,
            -6.061409372082153,
            -0.2886711022279087,
            -1.3926734947572186,
            -32.471078632440594,
            -261.4263058230006,
            -1097.1391159789007,
            -3589.3039584040225,
            -9353.244900463971,
            -23255.42167989464,
            -1.7976931348623157E308,
            -1.7976931348623157E308,
            -1.7976931348623157E308
          ],
          "observedValue": 4.0,
          "logProba": -25.322479526983898,
          "ic": 36.53261563659198,
          "dl": 4.08746284125034,
          "si": 4.30615381047,
          "isObserved": false
        },
        {
          "id": "161",
          "name": "4.20 Public health",
          "xHat": 10.0,
          "xBar": 121.58797561488333,
          "yBar": 6.925856750969573,
          "yHat": 3.3219280948873626,
          "currentMode": 7.0,
          "marginProba": 0.9999999999999998,
          "logMarginals": [
            -52.00017887396302,
            -45.875134978925644,
            -36.769689851149224,
            -24.466287843785267,
            -11.17559610635658,
            -4.01345787070818,
            -0.853233422026733,
            -0.5872389045166528,
            -10.815480377538961,
            -38.048168291212505,
            -410.9801586550984,
            -1975.1632694060997,
            -6476.502889415575,
            -16665.496244064136,
            -1.7976931348623157E308,
            -1.7976931348623157E308,
            -1.7976931348623157E308
          ],
          "observedValue": 3.0,
          "logProba": -24.466287843785267,
          "ic": 35.29739214119093,
          "dl": 4.409390936137703,
          "si": 4.160556177537974,
          "isObserved": false
        },
        {
          "id": "66",
          "name": "8.70.70 Flexibility instrument",
          "xHat": 1.0,
          "xBar": 13.50977506832037,
          "yBar": 3.7559317495272606,
          "yHat": 0.0,
          "currentMode": 5.0,
          "marginProba": 0.9999999999999998,
          "logMarginals": [
            -29.90896876150873,
            -24.715719953003145,
            -17.44179245495434,
            -8.693532746609208,
            -1.7015496491133035,
            -0.23141095866890282,
            -3.728938412896923,
            -35.20437144727043,
            -182.47720286352433,
            -658.4404776176202,
            -1989.6559846198338,
            -5473.2607371125705,
            -14408.06607158733,
            -1.7976931348623157E308,
            -1.7976931348623157E308,
            -1.7976931348623157E308,
            -1.7976931348623157E308
          ],
          "observedValue": 0.0,
          "logProba": -29.90896876150873,
          "ic": 43.14952091033157,
          "dl": 6.409390936137703,
          "si": 5.086098289164623,
          "isObserved": false
        },
        {
          "id": "9",
          "name": "8.70.54 2014 budget",
          "xHat": 54.0,
          "xBar": 56.290729451334876,
          "yBar": 5.814825438580829,
          "yHat": 5.754887502163469,
          "currentMode": 7.0,
          "marginProba": 1.0,
          "logMarginals": [
            -129.08346449178748,
            -121.07859494479817,
            -108.21921742304335,
            -88.41391478399328,
            -60.265921639718044,
            -26.523059481286737,
            -2.5555911668443514,
            -0.09758282723805678,
            -4.1781737794265155,
            -112.66808011724697,
            -701.4737140364614,
            -2699.1548767558334,
            -8661.729749265809,
            -1.7976931348623157E308,
            -1.7976931348623157E308,
            -1.7976931348623157E308,
            -1.7976931348623157E308
          ],
          "observedValue": 5.0,
          "logProba": -26.523059481286737,
          "ic": 38.26468638285538,
          "dl": 4.08746284125034,
          "si": 4.510315568779883,
          "isObserved": false
        },
        {
          "id": "195",
          "name": "3.45.01 Company law",
          "xHat": 4.0,
          "xBar": 92.3167963001892,
          "yBar": 6.528521253424189,
          "yHat": 2.0,
          "currentMode": 6.0,
          "marginProba": 1.0,
          "logMarginals": [
            -40.31776816514525,
            -35.34373537034389,
            -28.571795172841803,
            -20.639608203463695,
            -7.9715899479081145,
            -1.208533435877598,
            -0.6268165220053561,
            -1.7913798626420885,
            -24.477265438094264,
            -165.24735569568043,
            -682.6029716175954,
            -1788.502567756546,
            -5245.62266394737,
            -12745.713640969192,
            -1.7976931348623157E308,
            -1.7976931348623157E308,
            -1.7976931348623157E308
          ],
          "observedValue": 2.0,
          "logProba": -28.571795172841803,
          "ic": 41.2203872051541,
          "dl": 6.409390936137703,
          "si": 4.8587084264159115,
          "isObserved": false
        },
        {
          "id": "135",
          "name": "3.60.05 Alternative and renewable energies",
          "xHat": 8.0,
          "xBar": 137.3493798612571,
          "yBar": 7.101706586368991,
          "yHat": 3.0,
          "currentMode": 6.0,
          "marginProba": 0.9999999999999999,
          "logMarginals": [
            -52.68309220866627,
            -46.58010292825725,
            -37.59527262618485,
            -25.83954694849922,
            -14.730608271252322,
            -5.194458718905935,
            -0.5108429334029552,
            -1.0309220070625997,
            -3.2758479032488594,
            -118.0585806888746,
            -379.2832885871801,
            -1182.3505711174319,
            -4126.705941090745,
            -10508.545517291417,
            -1.7976931348623157E308,
            -1.7976931348623157E308,
            -1.7976931348623157E308
          ],
          "observedValue": 3.0,
          "logProba": -25.83954694849922,
          "ic": 37.27858624141737,
          "dl": 6.409390936137703,
          "si": 4.394082476580892,
          "isObserved": false
        }
      ]
    },
    {
      "sdnodes": [
        {
          "id": "155",
          "name": "8.40.07 European Investment Bank",
          "xHat": 288.0,
          "xBar": 92.3167963001892,
          "yBar": 6.528521253424189,
          "yHat": 8.169925001442312,
          "currentMode": 6.0,
          "marginProba": 1.0,
          "logMarginals": [
            -68.56306000096833,
            -61.70142703367469,
            -51.14273175570884,
            -36.00309322894918,
            -17.407217189921766,
            -2.896293908007465,
            -0.1176655657898209,
            -2.8863553100716217,
            -65.524260443613,
            -429.08561682482195,
            -1173.6577817686612,
            -2922.6485084168257,
            -7657.676995387057,
            -18514.072868280116,
            -1.7976931348623157E308,
            -1.7976931348623157E308,
            -1.7976931348623157E308
          ],
          "observedValue": 8.0,
          "logProba": -65.524260443613,
          "ic": 94.53152559991734,
          "dl": 8.731319031025064,
          "si": 11.142571701433216,
          "isObserved": false
        },
        {
          "id": "186",
          "name": "4.70.01 Structural funds",
          "xHat": 295.0,
          "xBar": 81.05865040992222,
          "yBar": 6.340894250248417,
          "yHat": 8.204571144249204,
          "currentMode": 5.0,
          "marginProba": 1.0000000000000002,
          "logMarginals": [
            -23.108182803229965,
            -18.924695007696528,
            -13.804714247853326,
            -7.141592354193563,
            -1.6115475610190515,
            -0.6559843668883332,
            -1.270476322807781,
            -16.143465873591367,
            -51.15084860321667,
            -190.7168004046132,
            -502.68154966171574,
            -1495.2539411371579,
            -5445.312854262279,
            -13550.929700307066,
            -1.7976931348623157E308,
            -1.7976931348623157E308,
            -1.7976931348623157E308
          ],
          "observedValue": 8.0,
          "logProba": -51.15084860321667,
          "ic": 73.79507561712286,
          "dl": 8.731319031025064,
          "si": 8.698335460664527,
          "isObserved": false
        },
        {
          "id": "146",
          "name": "4.45 Common cultural area",
          "xHat": 135.0,
          "xBar": 78.80702123186883,
          "yBar": 6.300252265751071,
          "yHat": 7.076815597050832,
          "currentMode": 5.0,
          "marginProba": 0.9999999999999999,
          "logMarginals": [
            -31.379644462854685,
            -26.113559227969972,
            -18.70306488379083,
            -9.711781900673031,
            -2.3278444524987663,
            -0.17722473845446984,
            -2.735798598701649,
            -34.014228916822276,
            -162.30119051128213,
            -452.4379249720189,
            -1055.1709993093593,
            -3080.7703177749827,
            -8830.60743003924,
            -20866.087787972854,
            -1.7976931348623157E308,
            -1.7976931348623157E308,
            -1.7976931348623157E308
          ],
          "observedValue": 7.0,
          "logProba": -34.014228916822276,
          "ic": 49.072159377961476,
          "dl": 4.409390936137703,
          "si": 5.784208505501706,
          "isObserved": false
        }
      ]
    },
    {
      "sdnodes": [
        {
          "id": "223",
          "name": "4.70.02 Cohesion policy",
          "xHat": 10.0,
          "xBar": 65.29724616354845,
          "yBar": 6.028950243933676,
          "yHat": 3.3219280948873626,
          "currentMode": 6.0,
          "marginProba": 0.9999999999999999,
          "logMarginals": [
            -88.94065513827627,
            -81.35045862560696,
            -69.36196016868166,
            -51.46866987292378,
            -27.8338106769952,
            -5.730932930632207,
            -0.2337562097711725,
            -1.583764391051318,
            -54.755417250482424,
            -166.60134049587373,
            -530.4513774799143,
            -1706.1981424376118,
            -6428.094450619596,
            -16487.672543874425,
            -1.7976931348623157E308,
            -1.7976931348623157E308,
            -1.7976931348623157E308
          ],
          "observedValue": 3.0,
          "logProba": -51.46866987292378,
          "ic": 74.25359478681834,
          "dl": 8.731319031025064,
          "si": 8.752381798036003,
          "isObserved": false
        },
        {
          "id": "228",
          "name": "4.10.11 Retirement",
          "xHat": 46.0,
          "xBar": 22.51629178053395,
          "yBar": 4.492897343693467,
          "yHat": 5.523561956057013,
          "currentMode": 2.0,
          "marginProba": 1.0000000000000002,
          "logMarginals": [
            -4.020369641794332,
            -2.118544406211413,
            -0.6465173279127612,
            -1.0944498819415003,
            -5.727119960965865,
            -23.663332139056365,
            -81.31783578258342,
            -202.0474483519265,
            -482.53144098142184,
            -1066.4892202199558,
            -2306.5012595177864,
            -4931.296929980743,
            -12148.343345478972,
            -27070.083258536346,
            -1.7976931348623157E308,
            -1.7976931348623157E308,
            -1.7976931348623157E308
          ],
          "observedValue": 5.0,
          "logProba": -23.663332139056365,
          "ic": 34.13897192792505,
          "dl": 6.409390936137703,
          "si": 4.024011461848799,
          "isObserved": false
        },
        {
          "id": "133",
          "name": "3.60 Energy policy",
          "xHat": 344.0,
          "xBar": 486.35190245953333,
          "yBar": 8.925856750969574,
          "yHat": 8.426264754702098,
          "currentMode": 7.0,
          "marginProba": 0.9999999999999997,
          "logMarginals": [
            -1.7976931348623157E308,
            -1.7976931348623157E308,
            -1.7976931348623157E308,
            -132.1333761075366,
            -95.98471761286214,
            -53.347244002725574,
            -19.1519850169484,
            -5.033598426962271E-9,
            -22.2341755725015,
            -98.31096943394687,
            -410.1319856892701,
            -1355.8356338145418,
            -4534.866013881519,
            -11461.146353979,
            -1.7976931348623157E308,
            -1.7976931348623157E308,
            -1.7976931348623157E308
          ],
          "observedValue": 8.0,
          "logProba": -22.2341755725015,
          "ic": 32.07713483670244,
          "dl": 6.731319031025064,
          "si": 3.780979653361383,
          "isObserved": false
        },
        {
          "id": "136",
          "name": "3.70.02 Atmospheric pollution",
          "xHat": 168.0,
          "xBar": 236.42106369560648,
          "yBar": 7.8852147664722265,
          "yHat": 7.392317422778761,
          "currentMode": 5.0,
          "marginProba": 0.9999999999999998,
          "logMarginals": [
            -48.70601567856238,
            -42.2657160931758,
            -32.61241908232864,
            -19.5434365298579,
            -6.046681978654078,
            -0.5399382772095578,
            -0.8798380867942797,
            -24.31154244212894,
            -1.7976931348623157E308,
            -1.7976931348623157E308,
            -1.7976931348623157E308,
            -1.7976931348623157E308,
            -1.7976931348623157E308,
            -1.7976931348623157E308,
            -1.7976931348623157E308,
            -1.7976931348623157E308,
            -1.7976931348623157E308
          ],
          "observedValue": 7.0,
          "logProba": -24.31154244212894,
          "ic": 35.07414171762098,
          "dl": 6.409390936137703,
          "si": 4.134241317641059,
          "isObserved": false
        },
        {
          "id": "48",
          "name": "3.70.18 International and regional environment protection measures and agreements",
          "xHat": 165.0,
          "xBar": 240.92432205171326,
          "yBar": 7.912436235207251,
          "yHat": 7.366322214245815,
          "currentMode": 5.0,
          "marginProba": 1.0,
          "logMarginals": [
            -49.8458409798518,
            -43.35167319417019,
            -33.59146308178697,
            -20.3117698652527,
            -6.423477919824791,
            -0.5891030623702136,
            -0.8129395769219627,
            -22.990174556014153,
            -1.7976931348623157E308,
            -1.7976931348623157E308,
            -1.7976931348623157E308,
            -1.7976931348623157E308,
            -1.7976931348623157E308,
            -1.7976931348623157E308,
            -1.7976931348623157E308,
            -1.7976931348623157E308,
            -1.7976931348623157E308
          ],
          "observedValue": 7.0,
          "logProba": -22.990174556014153,
          "ic": 33.167810821133244,
          "dl": 4.08746284125034,
          "si": 3.9095392559111817,
          "isObserved": false
        },
        {
          "id": "137",
          "name": "3.70.03 Climate policy",
          "xHat": 165.0,
          "xBar": 240.92432205171326,
          "yBar": 7.912436235207251,
          "yHat": 7.366322214245815,
          "currentMode": 5.0,
          "marginProba": 1.0,
          "logMarginals": [
            -49.8458409798518,
            -43.35167319417019,
            -33.59146308178697,
            -20.3117698652527,
            -6.423477919824791,
            -0.5891030623702136,
            -0.8129395769219627,
            -22.990174556014153,
            -1.7976931348623157E308,
            -1.7976931348623157E308,
            -1.7976931348623157E308,
            -1.7976931348623157E308,
            -1.7976931348623157E308,
            -1.7976931348623157E308,
            -1.7976931348623157E308,
            -1.7976931348623157E308,
            -1.7976931348623157E308
          ],
          "observedValue": 7.0,
          "logProba": -22.990174556014153,
          "ic": 33.167810821133244,
          "dl": 4.08746284125034,
          "si": 3.9095392559111817,
          "isObserved": false
        },
        {
          "id": "218",
          "name": "3.45.06 Entrepreneurship",
          "xHat": 44.0,
          "xBar": 13.50977506832037,
          "yBar": 3.7559317495272606,
          "yHat": 5.459431618637297,
          "currentMode": 2.0,
          "marginProba": 0.9999999999999998,
          "logMarginals": [
            -2.906802761942572,
            -1.4194878034847989,
            -0.580213658244702,
            -1.9423910117275227,
            -7.895408943538996,
            -20.357181587191235,
            -64.59188322038813,
            -164.8153847236672,
            -439.5057796885344,
            -1037.8470764302751,
            -2586.5093690631224,
            -5758.826396463031,
            -13201.132217926903,
            -28761.171110602136,
            -1.7976931348623157E308,
            -1.7976931348623157E308,
            -1.7976931348623157E308
          ],
          "observedValue": 5.0,
          "logProba": -20.357181587191235,
          "ic": 29.369204922316914,
          "dl": 6.409390936137703,
          "si": 3.4617919216283934,
          "isObserved": false
        },
        {
          "id": "129",
          "name": "3.15.08 Fishing enterprises",
          "xHat": 1.0,
          "xBar": 15.761404246373765,
          "yBar": 3.9783241708637083,
          "yHat": 0.0,
          "currentMode": 4.0,
          "marginProba": 0.9999999999999999,
          "logMarginals": [
            -18.740431571025283,
            -14.353433631305961,
            -8.675171753651512,
            -3.0189303807610486,
            -0.32270249540147233,
            -1.4837518618228387,
            -14.179654208055581,
            -84.00072384256305,
            -344.10878069403543,
            -1.7976931348623157E308,
            -1.7976931348623157E308,
            -1.7976931348623157E308,
            -1.7976931348623157E308,
            -1.7976931348623157E308,
            -1.7976931348623157E308,
            -1.7976931348623157E308,
            -1.7976931348623157E308
          ],
          "observedValue": 0.0,
          "logProba": -18.740431571025283,
          "ic": 27.036727691637143,
          "dl": 6.409390936137703,
          "si": 3.1868593568583563,
          "isObserved": false
        }
      ]
    },
    {
      "sdnodes": [
        {
          "id": "187",
          "name": "6.40.13 Relations with/in the context of international organisations: UN",
          "xHat": 13.0,
          "xBar": 128.34286314904352,
          "yBar": 7.003859262970846,
          "yHat": 3.700439718141092,
          "currentMode": 7.0,
          "marginProba": 1.0000000000000002,
          "logMarginals": [
            -49.029882363319075,
            -43.9414408045734,
            -36.58912023895573,
            -24.43861962809774,
            -10.059648367184082,
            -2.5469802533800703,
            -1.0033216339859337,
            -0.816580596063659,
            -2.1800164940450486,
            -35.99196196246908,
            -209.65578835001725,
            -792.7602440237606,
            -2760.12174928004,
            -8961.239862898523,
            -1.7976931348623157E308,
            -1.7976931348623157E308,
            -1.7976931348623157E308
          ],
          "observedValue": 3.0,
          "logProba": -24.43861962809774,
          "ic": 35.25747534362829,
          "dl": 8.731319031025064,
          "si": 4.155851125164063,
          "isObserved": false
        },
        {
          "id": "119",
          "name": "6.10.08 Fundamental freedoms",
          "xHat": 2.0,
          "xBar": 58.54235862938827,
          "yBar": 5.871408966947196,
          "yHat": 1.0,
          "currentMode": 6.0,
          "marginProba": 1.0,
          "logMarginals": [
            -25.21334202454682,
            -20.74087970835285,
            -14.337953987325363,
            -7.031777910717665,
            -2.33194800196452,
            -0.8863722352264176,
            -0.8725476431793595,
            -2.6314245418066093,
            -20.855232261680158,
            -180.209744567489,
            -593.9705512154756,
            -1754.9129581878829,
            -5369.001618433145,
            -14178.419623875432,
            -1.7976931348623157E308,
            -1.7976931348623157E308,
            -1.7976931348623157E308
          ],
          "observedValue": 1.0,
          "logProba": -20.74087970835285,
          "ic": 29.922764298915187,
          "dl": 6.409390936137703,
          "si": 3.5270407897240155,
          "isObserved": false
        },
        {
          "id": "325",
          "name": "8.30 Treaties in general",
          "xHat": 18.0,
          "xBar": 47.284212739121294,
          "yBar": 5.563286671584865,
          "yHat": 4.169925001442312,
          "currentMode": 6.0,
          "marginProba": 1.0,
          "logMarginals": [
            -69.86180778501102,
            -63.069914265271336,
            -52.63071707961717,
            -37.65123711766341,
            -19.06446996496834,
            -3.578292917854924,
            -0.13681950680620503,
            -2.3030947756822115,
            -47.29810983205425,
            -310.820991939705,
            -1216.1097350671516,
            -3847.5302056414307,
            -10201.958253545054,
            -24661.245091984067,
            -1.7976931348623157E308,
            -1.7976931348623157E308,
            -1.7976931348623157E308
          ],
          "observedValue": 4.0,
          "logProba": -19.06446996496834,
          "ic": 27.504216275636413,
          "dl": 6.731319031025064,
          "si": 3.241962932451321,
          "isObserved": false
        },
        {
          "id": "111",
          "name": "8.20.04 Pre-accession and partnership",
          "xHat": 3.0,
          "xBar": 27.01955013664074,
          "yBar": 4.75593174952726,
          "yHat": 1.5849625007211563,
          "currentMode": 5.0,
          "marginProba": 1.0000000000000002,
          "logMarginals": [
            -27.770746946936697,
            -22.476235779947956,
            -15.166350567975314,
            -6.9935248221008806,
            -2.3438698897994072,
            -0.5064855544628699,
            -1.2035152268522324,
            -7.877055139450931,
            -41.958841513726156,
            -204.02375172470397,
            -902.194640969987,
            -3118.473228793433,
            -8737.452552815686,
            -21534.72285681473,
            -1.7976931348623157E308,
            -1.7976931348623157E308,
            -1.7976931348623157E308
          ],
          "observedValue": 1.0,
          "logProba": -22.476235779947956,
          "ic": 32.426353897582,
          "dl": 6.409390936137703,
          "si": 3.822142624133972,
          "isObserved": false
        },
        {
          "id": "282",
          "name": "8.60 European statistical legislation",
          "xHat": 2.0,
          "xBar": 11.258145890266976,
          "yBar": 3.492897343693467,
          "yHat": 1.0,
          "currentMode": 4.0,
          "marginProba": 1.0,
          "logMarginals": [
            -16.00670847589936,
            -11.949586665137076,
            -6.862146710067009,
            -2.130671424375805,
            -0.26235406510886605,
            -2.198670433624102,
            -17.037480027910306,
            -85.93128252303882,
            -311.61213065635343,
            -945.102286787034,
            -2591.6108892836064,
            -6705.901969070402,
            -15918.606334698521,
            -36309.79507959232,
            -1.7976931348623157E308,
            -1.7976931348623157E308,
            -1.7976931348623157E308
          ],
          "observedValue": 1.0,
          "logProba": -11.949586665137076,
          "ic": 17.239609422466145,
          "dl": 4.08746284125034,
          "si": 2.0320584363307965,
          "isObserved": false
        },
        {
          "id": "270",
          "name": "6.50 Emergency",
          "xHat": 1.0,
          "xBar": 22.51629178053395,
          "yBar": 4.492897343693467,
          "yHat": 0.0,
          "currentMode": 4.0,
          "marginProba": 1.0000000000000002,
          "logMarginals": [
            -11.664729485573616,
            -8.33149184179706,
            -4.55670392254865,
            -1.778563631505449,
            -0.6375594330556851,
            -1.2319576042159497,
            -9.544190246818971,
            -61.947552240294726,
            -255.471525334234,
            -648.2977462193937,
            -1798.4301425367278,
            -4919.771160647946,
            -13130.006527007292,
            -29709.50820389827,
            -1.7976931348623157E308,
            -1.7976931348623157E308,
            -1.7976931348623157E308
          ],
          "observedValue": 0.0,
          "logProba": -11.664729485573616,
          "ic": 16.828647382148326,
          "dl": 4.08746284125034,
          "si": 1.9836177286224612,
          "isObserved": false
        },
        {
          "id": "230",
          "name": "4.15.04 Workforce",
          "xHat": 13.0,
          "xBar": 159.86567164179104,
          "yBar": 7.320716368310786,
          "yHat": 3.700439718141092,
          "currentMode": 6.0,
          "marginProba": 1.0,
          "logMarginals": [
            -47.03710042763123,
            -40.902660876349046,
            -31.81120151439677,
            -19.665108853118454,
            -7.156039358744692,
            -1.5726162757860038,
            -0.6383805949533325,
            -1.3334315384199726,
            -30.502221620818545,
            -85.72568990079662,
            -282.1781271480488,
            -740.5594590621342,
            -2979.1968422384316,
            -8735.269935022667,
            -1.7976931348623157E308,
            -1.7976931348623157E308,
            -1.7976931348623157E308
          ],
          "observedValue": 3.0,
          "logProba": -19.665108853118454,
          "ic": 28.370755020935647,
          "dl": 8.731319031025064,
          "si": 3.344103144833286,
          "isObserved": false
        },
        {
          "id": "225",
          "name": "4.70.05 Regional cooperation",
          "xHat": 52.0,
          "xBar": 87.81353794408241,
          "yBar": 6.456371467668353,
          "yHat": 5.700439718141093,
          "currentMode": 7.0,
          "marginProba": 1.0,
          "logMarginals": [
            -128.86848675044712,
            -120.38596106330715,
            -106.61562408369991,
            -85.16717316740028,
            -54.47445581012698,
            -18.80391687042561,
            -0.9965626897176207,
            -0.46068107138194136,
            -17.843752697195896,
            -158.9798608468218,
            -613.1301861177426,
            -1994.6933852392249,
            -7138.642279019267,
            -18051.282665405364,
            -1.7976931348623157E308,
            -1.7976931348623157E308,
            -1.7976931348623157E308
          ],
          "observedValue": 5.0,
          "logProba": -18.80391687042561,
          "ic": 27.128317618251344,
          "dl": 6.409390936137703,
          "si": 3.197655197906632,
          "isObserved": false
        },
        {
          "id": "224",
          "name": "4.70.04 Town and country planning",
          "xHat": 2.0,
          "xBar": 13.50977506832037,
          "yBar": 3.7559317495272606,
          "yHat": 1.0,
          "currentMode": 4.0,
          "marginProba": 0.9999999999999998,
          "logMarginals": [
            -15.546767877510774,
            -11.499366450087336,
            -6.461630694103633,
            -1.9036650646426097,
            -0.26137151672082837,
            -2.5331159379393284,
            -20.086672051451842,
            -101.65782084683542,
            -325.82772273058254,
            -892.3129347194886,
            -2077.3998586690395,
            -4920.79142418866,
            -12988.373146947277,
            -29748.266818762426,
            -1.7976931348623157E308,
            -1.7976931348623157E308,
            -1.7976931348623157E308
          ],
          "observedValue": 1.0,
          "logProba": -11.499366450087336,
          "ic": 16.590078950905923,
          "dl": 4.08746284125034,
          "si": 1.9554973123491919,
          "isObserved": false
        },
        {
          "id": "335",
          "name": "4.45.02 Cultural programmes and actions",
          "xHat": 1.0,
          "xBar": 9.00651671221358,
          "yBar": 3.170969248806104,
          "yHat": 0.0,
          "currentMode": 4.0,
          "marginProba": 1.0,
          "logMarginals": [
            -14.70219016045644,
            -10.687578048409705,
            -5.749312815548592,
            -1.4811518106571384,
            -0.30929487073240125,
            -3.339580259071454,
            -24.59370011696228,
            -124.08762490019444,
            -1.7976931348623157E308,
            -1.7976931348623157E308,
            -1.7976931348623157E308,
            -1.7976931348623157E308,
            -1.7976931348623157E308,
            -1.7976931348623157E308,
            -1.7976931348623157E308,
            -1.7976931348623157E308,
            -1.7976931348623157E308
          ],
          "observedValue": 0.0,
          "logProba": -14.70219016045644,
          "ic": 21.21077683469702,
          "dl": 6.409390936137703,
          "si": 2.5001458531831506,
          "isObserved": false
        }
      ]
    },
    {
      "sdnodes": [
        {
          "id": "13",
          "name": "6 External relations of the Union",
          "xHat": 2450.0,
          "xBar": 2114.279798192138,
          "yBar": 11.04595059645988,
          "yHat": 11.258566033889933,
          "currentMode": 10.0,
          "marginProba": 0.9999999999999998,
          "logMarginals": [
            -1.7976931348623157E308,
            -1.7976931348623157E308,
            -1.7976931348623157E308,
            -1681.0994079111497,
            -1604.7730569809742,
            -1479.6398784943954,
            -1281.7660500756347,
            -981.7928204778987,
            -568.6283497519685,
            -126.96994340981018,
            0.0,
            -67.2602511517457,
            -343.39590039492214,
            -4221.689538920569,
            -1.7976931348623157E308,
            -1.7976931348623157E308,
            -1.7976931348623157E308
          ],
          "observedValue": 11.0,
          "logProba": -67.2602511517457,
          "ic": 97.03603078556972,
          "dl": 4.409390936137703,
          "si": 11.437781457444679,
          "isObserved": false
        }
      ]
    }
  ]
}