0,20171
7,4865
8,3390
20,1169
21,2
12,172
13,5515
14,1698
15,1010
11,3
9,11
16,1735
17,1302
18,1302
19,8
24,1021
25,61
34,236
38,300
39,285
1,6712
49,478
50,140
51,27
2,860
52,83
40,484
53,42
26,346
60,97
4,2164
5,910
6,5
61,763
62,55
76,42
77,4
78,402
43,582
44,389
45,389
79,479
80,194
81,21
84,1030
85,57
86,8
28,691
29,76
30,26
87,1072
92,2
3,89
35,2168
107,231
106,172
112,12
113,1
114,1
83,539
115,258
117,308
118,2706
119,15
120,50
55,776
121,9
124,111
108,59
109,58
110,42
111,17
153,3
154,50
99,21
116,21
152,101
133,1047
134,4
135,172
46,1156
136,244
137,397
48,307
36,590
95,575
97,48
37,35
171,2021
161,49
162,2
163,2
164,2
165,2
166,2
102,1951
167,21
168,282
100,17
98,326
105,131
169,181
170,592
172,144
173,67
174,11
63,6
175,6
142,187
176,96
184,314
185,365
159,245
82,3
140,99
141,81
57,114
186,59
155,13
64,3
191,35
200,28
201,3
202,3
203,3
204,3
74,276
205,88
195,544
127,76
138,430
206,178
209,64
210,63
47,61
211,22
212,16
218,6
67,628
70,17
71,14
189,445
222,186
223,39
224,1
225,16
230,158
132,98
88,920
214,14
215,32
146,38
219,32
220,4
213,285
232,82
233,176
143,84
231,178
130,136
234,344
235,321
199,219
237,171
178,25
139,411
238,3
149,3
239,3
252,1396
247,412
248,113
249,121
250,336
251,113
158,336
257,196
33,347
246,1
226,93
260,5
187,84
262,1
179,267
261,221
241,135
263,15
253,2
254,2
180,158
266,15
271,5
272,17
264,183
265,9
274,11
284,276
256,79
196,38
280,36
56,2
292,74
285,12
190,125
293,3
90,148
255,85
291,10
294,2
297,3
298,3
299,26
101,3
295,133
302,76
309,236
128,229
304,1
131,1
310,4
313,30
289,45
75,188
311,35
314,10
316,141
269,4
182,2
315,10
150,6
317,127
197,17
221,1
267,5
318,67
319,1
147,6
320,292
192,118
321,18
27,43
323,2
324,236
325,216
65,531
258,6
59,9
326,15
10,3
328,41
207,3
329,3
330,690
270,6
332,30
58,30
336,884
41,100
193,14
194,14
228,3
68,574
129,1
125,3
148,6
177,6
341,6
160,23
69,573
227,3
96,4
346,4
347,1
72,7
348,15
345,44
122,32
351,2
344,72
352,220
355,86
357,22
156,8
240,2
