parent,child
0,1
0,4
0,7
0,13
0,16
0,28
0,35
0,79
1,2
1,26
1,40
1,46
1,49
1,61
1,67
1,102
1,133
2,3
2,10
2,22
2,23
2,32
2,33
2,52
2,59
2,93
2,94
2,123
2,153
2,166
2,169
2,172
2,312
2,334
4,5
4,43
4,57
4,84
4,142
4,146
4,161
4,246
5,6
5,127
5,132
5,198
5,199
5,230
5,232
5,262
5,277
5,313
7,8
7,87
7,109
7,234
7,282
7,324
7,325
8,9
8,11
8,12
8,20
8,65
8,66
8,115
8,116
8,128
8,284
8,319
8,330
8,352
13,14
13,24
13,34
13,118
13,270
14,15
14,19
14,31
14,82
14,83
14,124
14,191
16,17
16,38
16,117
17,18
17,281
20,21
20,152
20,336
24,25
24,54
24,72
24,74
24,108
24,140
24,187
24,266
24,267
24,268
24,271
24,276
24,287
24,289
24,318
26,27
26,60
26,91
26,125
26,130
26,188
26,196
26,197
26,221
26,231
26,263
26,280
28,29
28,179
28,189
29,30
29,154
34,160
34,288
34,350
35,36
35,55
35,98
35,107
35,206
35,247
35,278
35,306
36,37
36,95
36,96
36,97
36,100
36,244
38,39
38,326
40,41
40,53
40,159
40,178
40,192
40,194
40,297
40,302
41,42
43,44
43,105
43,139
43,165
44,45
46,47
46,48
46,64
46,136
46,137
46,138
46,168
46,203
46,204
46,217
46,220
46,275
46,305
46,328
49,50
49,121
49,122
49,156
49,157
49,158
49,249
49,250
49,251
49,314
49,344
50,51
50,248
55,56
55,245
57,58
57,186
57,223
57,224
57,225
57,239
60,255
61,62
61,76
61,78
61,112
61,148
61,173
61,177
61,200
61,209
61,243
61,295
61,351
62,63
62,114
62,175
62,242
62,300
62,333
62,337
62,345
62,353
62,354
67,68
67,69
67,70
67,129
67,216
67,238
67,269
67,273
67,331
67,332
70,71
70,73
70,290
70,323
74,75
74,205
74,308
76,77
79,80
79,213
80,81
80,90
80,274
80,294
84,85
84,86
84,106
84,126
84,149
84,226
84,227
84,228
84,229
84,233
84,310
84,322
84,346
87,88
87,92
87,99
87,155
87,183
87,215
87,292
87,307
88,89
88,214
88,257
88,320
100,101
102,103
102,104
102,167
102,195
102,218
102,252
102,342
107,151
107,301
107,339
109,110
109,111
112,113
112,174
118,119
118,120
118,170
118,171
118,185
118,260
118,272
130,131
130,291
133,134
133,135
133,184
133,202
133,264
133,265
133,309
133,311
133,316
133,327
140,141
140,293
140,348
142,143
142,144
142,145
142,150
142,176
142,298
142,343
142,349
142,356
146,147
146,219
146,335
146,340
158,338
161,162
161,163
161,164
161,211
161,283
161,286
161,303
177,341
179,180
179,208
179,253
179,261
179,329
179,347
180,181
180,182
180,236
180,299
180,315
189,190
189,222
189,241
189,258
192,193
192,321
192,355
196,304
200,201
200,279
206,207
206,237
206,240
209,210
211,212
234,235
234,285
247,256
247,259
253,254
295,296
295,317
325,357
